^C:\USERS\ANDREI\SOURCE\REPOS\PROIECT_3-FBI\FRAMEWORK\FRAMEWORK.DIR\DEBUG\REQUEST.OBJ|C:\USERS\ANDREI\SOURCE\REPOS\PROIECT_3-FBI\FRAMEWORK\FRAMEWORK.DIR\DEBUG\RESPONSE.OBJ
C:\USERS\ANDREI\SOURCE\REPOS\PROIECT_3-FBI\FRAMEWORK\FRAMEWORK.DIR\DEBUG\REQUEST.OBJ
C:\WINDOWS\SYSTEM32\TZRES.DLL
C:\USERS\ANDREI\SOURCE\REPOS\PROIECT_3-FBI\FRAMEWORK\FRAMEWORK.DIR\DEBUG\RESPONSE.OBJ
C:\WINDOWS\GLOBALIZATION\SORTING\SORTDEFAULT.NLS
