^C:\USERS\ANDREI\SOURCE\REPOS\PROIECT_3-FBI\CLIENT\CLIENT.DIR\DEBUG\HANDSHAKEREQUEST.OBJ|C:\USERS\ANDREI\SOURCE\REPOS\PROIECT_3-FBI\CLIENT\CLIENT.DIR\DEBUG\MAIN.OBJ|C:\USERS\ANDREI\SOURCE\REPOS\PROIECT_3-FBI\CLIENT\CLIENT.DIR\DEBUG\REQUESTSMANAGER.OBJ|C:\USERS\ANDREI\SOURCE\REPOS\PROIECT_3-FBI\CLIENT\CLIENT.DIR\DEBUG\SESSION.OBJ|C:\USERS\ANDREI\SOURCE\REPOS\PROIECT_3-FBI\CLIENT\CLIENT.DIR\DEBUG\SUMREQUEST.OBJ|C:\USERS\ANDREI\SOURCE\REPOS\PROIECT_3-FBI\CLIENT\CLIENT.DIR\DEBUG\WORDCOUNTREQUEST.OBJ
C:\USERS\ANDREI\DESKTOP\CHESTII\CC\WISEMARIUS-CLOUD-COMPUTING-BOILERPLATE-290A9F871AE5\BUILD\EXE\DEBUG\CLIENT.EXE
C:\USERS\ANDREI\DESKTOP\CHESTII\CC\WISEMARIUS-CLOUD-COMPUTING-BOILERPLATE-290A9F871AE5\BUILD\EXE\DEBUG\CLIENT.ILK
C:\USERS\ANDREI\DESKTOP\CHESTII\CC\WISEMARIUS-CLOUD-COMPUTING-BOILERPLATE-290A9F871AE5\BUILD\EXE\DEBUG\CLIENT.PDB
